G04 #@! TF.GenerationSoftware,KiCad,Pcbnew,(5.1.10)-1*
G04 #@! TF.CreationDate,2021-08-01T21:28:50-04:00*
G04 #@! TF.ProjectId,mini,6d6f6465-6c6a-42d7-9373-6b2e6b696361,v0.02*
G04 #@! TF.SameCoordinates,Original*
G04 #@! TF.FileFunction,Soldermask,Bot*
G04 #@! TF.FilePolarity,Negative*
%FSLAX46Y46*%
G04 Gerber Fmt 4.6, Leading zero omitted, Abs format (unit mm)*
G04 Created by KiCad (PCBNEW (5.1.10)-1) date 2021-08-01 21:28:50*
%MOMM*%
%LPD*%
G01*
G04 APERTURE LIST*
%ADD10C,2.101600*%
%ADD11C,3.601600*%
%ADD12C,1.801600*%
%ADD13C,1.601600*%
%ADD14O,1.801600X1.801600*%
%ADD15C,2.851600*%
%ADD16C,1.701600*%
%ADD17C,4.101600*%
G04 APERTURE END LIST*
D10*
X196850000Y-78740000D03*
X194310000Y-78740000D03*
X191770000Y-78740000D03*
X189230000Y-78740000D03*
X186690000Y-78740000D03*
X184150000Y-78740000D03*
X181610000Y-78740000D03*
X179070000Y-78740000D03*
X176530000Y-78740000D03*
X173990000Y-78740000D03*
X171450000Y-78740000D03*
X168910000Y-78740000D03*
X166370000Y-78740000D03*
X163830000Y-78740000D03*
X161290000Y-78740000D03*
X158750000Y-78740000D03*
X147320000Y-50800000D03*
X144780000Y-50800000D03*
X142240000Y-50800000D03*
X139700000Y-50800000D03*
X137160000Y-50800000D03*
X134620000Y-50800000D03*
X132080000Y-50800000D03*
X129540000Y-50800000D03*
X127000000Y-50800000D03*
X124460000Y-50800000D03*
X121920000Y-50800000D03*
X119380000Y-50800000D03*
X116840000Y-50800000D03*
X114300000Y-50800000D03*
X111760000Y-50800000D03*
X109220000Y-50800000D03*
D11*
X226980000Y-57520000D03*
X214940000Y-57520000D03*
D12*
X219710000Y-60230000D03*
X222210000Y-60230000D03*
X222210000Y-62230000D03*
G36*
G01*
X220560000Y-63130800D02*
X218860000Y-63130800D01*
G75*
G02*
X218809200Y-63080000I0J50800D01*
G01*
X218809200Y-61380000D01*
G75*
G02*
X218860000Y-61329200I50800J0D01*
G01*
X220560000Y-61329200D01*
G75*
G02*
X220610800Y-61380000I0J-50800D01*
G01*
X220610800Y-63080000D01*
G75*
G02*
X220560000Y-63130800I-50800J0D01*
G01*
G37*
D13*
X153670000Y-60960000D03*
D14*
X140350000Y-58640000D03*
G36*
G01*
X138660000Y-59540800D02*
X136960000Y-59540800D01*
G75*
G02*
X136909200Y-59490000I0J50800D01*
G01*
X136909200Y-57790000D01*
G75*
G02*
X136960000Y-57739200I50800J0D01*
G01*
X138660000Y-57739200D01*
G75*
G02*
X138710800Y-57790000I0J-50800D01*
G01*
X138710800Y-59490000D01*
G75*
G02*
X138660000Y-59540800I-50800J0D01*
G01*
G37*
D15*
X235270000Y-80010000D03*
G36*
G01*
X228444200Y-81176566D02*
X228444200Y-78843434D01*
G75*
G02*
X228703434Y-78584200I259234J0D01*
G01*
X231036566Y-78584200D01*
G75*
G02*
X231295800Y-78843434I0J-259234D01*
G01*
X231295800Y-81176566D01*
G75*
G02*
X231036566Y-81435800I-259234J0D01*
G01*
X228703434Y-81435800D01*
G75*
G02*
X228444200Y-81176566I0J259234D01*
G01*
G37*
D14*
X142895000Y-61395000D03*
X140355000Y-61395000D03*
G36*
G01*
X138665000Y-62295800D02*
X136965000Y-62295800D01*
G75*
G02*
X136914200Y-62245000I0J50800D01*
G01*
X136914200Y-60545000D01*
G75*
G02*
X136965000Y-60494200I50800J0D01*
G01*
X138665000Y-60494200D01*
G75*
G02*
X138715800Y-60545000I0J-50800D01*
G01*
X138715800Y-62245000D01*
G75*
G02*
X138665000Y-62295800I-50800J0D01*
G01*
G37*
X143030000Y-76040000D03*
X140490000Y-76040000D03*
G36*
G01*
X138800000Y-76940800D02*
X137100000Y-76940800D01*
G75*
G02*
X137049200Y-76890000I0J50800D01*
G01*
X137049200Y-75190000D01*
G75*
G02*
X137100000Y-75139200I50800J0D01*
G01*
X138800000Y-75139200D01*
G75*
G02*
X138850800Y-75190000I0J-50800D01*
G01*
X138850800Y-76890000D01*
G75*
G02*
X138800000Y-76940800I-50800J0D01*
G01*
G37*
X143030000Y-72640000D03*
X140490000Y-72640000D03*
G36*
G01*
X138800000Y-73540800D02*
X137100000Y-73540800D01*
G75*
G02*
X137049200Y-73490000I0J50800D01*
G01*
X137049200Y-71790000D01*
G75*
G02*
X137100000Y-71739200I50800J0D01*
G01*
X138800000Y-71739200D01*
G75*
G02*
X138850800Y-71790000I0J-50800D01*
G01*
X138850800Y-73490000D01*
G75*
G02*
X138800000Y-73540800I-50800J0D01*
G01*
G37*
X143030000Y-69140000D03*
X140490000Y-69140000D03*
G36*
G01*
X138800000Y-70040800D02*
X137100000Y-70040800D01*
G75*
G02*
X137049200Y-69990000I0J50800D01*
G01*
X137049200Y-68290000D01*
G75*
G02*
X137100000Y-68239200I50800J0D01*
G01*
X138800000Y-68239200D01*
G75*
G02*
X138850800Y-68290000I0J-50800D01*
G01*
X138850800Y-69990000D01*
G75*
G02*
X138800000Y-70040800I-50800J0D01*
G01*
G37*
D16*
X236180000Y-69850000D03*
G36*
G01*
X232829200Y-70650000D02*
X232829200Y-69050000D01*
G75*
G02*
X232880000Y-68999200I50800J0D01*
G01*
X234480000Y-68999200D01*
G75*
G02*
X234530800Y-69050000I0J-50800D01*
G01*
X234530800Y-70650000D01*
G75*
G02*
X234480000Y-70700800I-50800J0D01*
G01*
X232880000Y-70700800D01*
G75*
G02*
X232829200Y-70650000I0J50800D01*
G01*
G37*
D11*
X232850000Y-53260000D03*
X208850000Y-53260000D03*
D10*
X208280000Y-59690000D03*
X208280000Y-62230000D03*
X208280000Y-64770000D03*
X208280000Y-67310000D03*
D12*
X128270000Y-77470000D03*
X128270000Y-62230000D03*
X125730000Y-77470000D03*
X125730000Y-62230000D03*
X123190000Y-77470000D03*
X123190000Y-62230000D03*
X120650000Y-77470000D03*
X120650000Y-62230000D03*
X118110000Y-77470000D03*
X118110000Y-62230000D03*
X115570000Y-77470000D03*
X115570000Y-62230000D03*
X113030000Y-77470000D03*
X113030000Y-62230000D03*
X110490000Y-77470000D03*
X110490000Y-62230000D03*
X107950000Y-77470000D03*
X107950000Y-62230000D03*
X105410000Y-77470000D03*
X105410000Y-62230000D03*
X102870000Y-77470000D03*
X102870000Y-62230000D03*
X100330000Y-77470000D03*
X100330000Y-62230000D03*
X97790000Y-77470000D03*
X97790000Y-62230000D03*
X95250000Y-77470000D03*
X95250000Y-62230000D03*
X92710000Y-77470000D03*
X92710000Y-62230000D03*
X90170000Y-77470000D03*
X90170000Y-62230000D03*
X87630000Y-77470000D03*
X87630000Y-62230000D03*
X85090000Y-77470000D03*
X85090000Y-62230000D03*
X82550000Y-77470000D03*
X82550000Y-62230000D03*
G36*
G01*
X80860000Y-78370800D02*
X79160000Y-78370800D01*
G75*
G02*
X79109200Y-78320000I0J50800D01*
G01*
X79109200Y-76620000D01*
G75*
G02*
X79160000Y-76569200I50800J0D01*
G01*
X80860000Y-76569200D01*
G75*
G02*
X80910800Y-76620000I0J-50800D01*
G01*
X80910800Y-78320000D01*
G75*
G02*
X80860000Y-78370800I-50800J0D01*
G01*
G37*
X80010000Y-62230000D03*
X124460000Y-66040000D03*
X124460000Y-68580000D03*
X124460000Y-71120000D03*
X124460000Y-73660000D03*
X153670000Y-55880000D03*
D14*
X191770000Y-71120000D03*
X191770000Y-68580000D03*
X191770000Y-66040000D03*
X191770000Y-63500000D03*
D12*
X191770000Y-60960000D03*
D17*
X209770000Y-79990000D03*
X69770000Y-71990000D03*
D11*
X100770000Y-51990000D03*
X76770000Y-51990000D03*
M02*
