G04 #@! TF.GenerationSoftware,KiCad,Pcbnew,(5.1.10)-1*
G04 #@! TF.CreationDate,2021-08-01T21:28:50-04:00*
G04 #@! TF.ProjectId,mini,6d6f6465-6c6a-42d7-9373-6b2e6b696361,v0.02*
G04 #@! TF.SameCoordinates,Original*
G04 #@! TF.FileFunction,Copper,L2,Bot*
G04 #@! TF.FilePolarity,Positive*
%FSLAX46Y46*%
G04 Gerber Fmt 4.6, Leading zero omitted, Abs format (unit mm)*
G04 Created by KiCad (PCBNEW (5.1.10)-1) date 2021-08-01 21:28:50*
%MOMM*%
%LPD*%
G01*
G04 APERTURE LIST*
G04 #@! TA.AperFunction,ComponentPad*
%ADD10C,2.000000*%
G04 #@! TD*
G04 #@! TA.AperFunction,ComponentPad*
%ADD11C,3.500000*%
G04 #@! TD*
G04 #@! TA.AperFunction,ComponentPad*
%ADD12C,1.700000*%
G04 #@! TD*
G04 #@! TA.AperFunction,ComponentPad*
%ADD13R,1.700000X1.700000*%
G04 #@! TD*
G04 #@! TA.AperFunction,ComponentPad*
%ADD14C,1.500000*%
G04 #@! TD*
G04 #@! TA.AperFunction,ComponentPad*
%ADD15O,1.700000X1.700000*%
G04 #@! TD*
G04 #@! TA.AperFunction,ComponentPad*
%ADD16C,2.750000*%
G04 #@! TD*
G04 #@! TA.AperFunction,ComponentPad*
%ADD17C,1.600000*%
G04 #@! TD*
G04 #@! TA.AperFunction,ComponentPad*
%ADD18R,1.600000X1.600000*%
G04 #@! TD*
G04 #@! TA.AperFunction,ViaPad*
%ADD19C,0.800000*%
G04 #@! TD*
G04 #@! TA.AperFunction,Conductor*
%ADD20C,0.250000*%
G04 #@! TD*
G04 APERTURE END LIST*
D10*
X196850000Y-78740000D03*
X194310000Y-78740000D03*
X191770000Y-78740000D03*
X189230000Y-78740000D03*
X186690000Y-78740000D03*
X184150000Y-78740000D03*
X181610000Y-78740000D03*
X179070000Y-78740000D03*
X176530000Y-78740000D03*
X173990000Y-78740000D03*
X171450000Y-78740000D03*
X168910000Y-78740000D03*
X166370000Y-78740000D03*
X163830000Y-78740000D03*
X161290000Y-78740000D03*
X158750000Y-78740000D03*
X147320000Y-50800000D03*
X144780000Y-50800000D03*
X142240000Y-50800000D03*
X139700000Y-50800000D03*
X137160000Y-50800000D03*
X134620000Y-50800000D03*
X132080000Y-50800000D03*
X129540000Y-50800000D03*
X127000000Y-50800000D03*
X124460000Y-50800000D03*
X121920000Y-50800000D03*
X119380000Y-50800000D03*
X116840000Y-50800000D03*
X114300000Y-50800000D03*
X111760000Y-50800000D03*
X109220000Y-50800000D03*
D11*
X226980000Y-57520000D03*
X214940000Y-57520000D03*
D12*
X219710000Y-60230000D03*
X222210000Y-60230000D03*
X222210000Y-62230000D03*
D13*
X219710000Y-62230000D03*
D14*
X153670000Y-60960000D03*
D15*
X140350000Y-58640000D03*
D13*
X137810000Y-58640000D03*
D16*
X235270000Y-80010000D03*
G04 #@! TA.AperFunction,ComponentPad*
G36*
G01*
X228495000Y-81135002D02*
X228495000Y-78884998D01*
G75*
G02*
X228744998Y-78635000I249998J0D01*
G01*
X230995002Y-78635000D01*
G75*
G02*
X231245000Y-78884998I0J-249998D01*
G01*
X231245000Y-81135002D01*
G75*
G02*
X230995002Y-81385000I-249998J0D01*
G01*
X228744998Y-81385000D01*
G75*
G02*
X228495000Y-81135002I0J249998D01*
G01*
G37*
G04 #@! TD.AperFunction*
D15*
X142895000Y-61395000D03*
X140355000Y-61395000D03*
D13*
X137815000Y-61395000D03*
D15*
X143030000Y-76040000D03*
X140490000Y-76040000D03*
D13*
X137950000Y-76040000D03*
D15*
X143030000Y-72640000D03*
X140490000Y-72640000D03*
D13*
X137950000Y-72640000D03*
D15*
X143030000Y-69140000D03*
X140490000Y-69140000D03*
D13*
X137950000Y-69140000D03*
D17*
X236180000Y-69850000D03*
D18*
X233680000Y-69850000D03*
D10*
X208280000Y-59690000D03*
X208280000Y-62230000D03*
X208280000Y-64770000D03*
X208280000Y-67310000D03*
D12*
X128270000Y-77470000D03*
X128270000Y-62230000D03*
X125730000Y-77470000D03*
X125730000Y-62230000D03*
X123190000Y-77470000D03*
X123190000Y-62230000D03*
X120650000Y-77470000D03*
X120650000Y-62230000D03*
X118110000Y-77470000D03*
X118110000Y-62230000D03*
X115570000Y-77470000D03*
X115570000Y-62230000D03*
X113030000Y-77470000D03*
X113030000Y-62230000D03*
X110490000Y-77470000D03*
X110490000Y-62230000D03*
X107950000Y-77470000D03*
X107950000Y-62230000D03*
X105410000Y-77470000D03*
X105410000Y-62230000D03*
X102870000Y-77470000D03*
X102870000Y-62230000D03*
X100330000Y-77470000D03*
X100330000Y-62230000D03*
X97790000Y-77470000D03*
X97790000Y-62230000D03*
X95250000Y-77470000D03*
X95250000Y-62230000D03*
X92710000Y-77470000D03*
X92710000Y-62230000D03*
X90170000Y-77470000D03*
X90170000Y-62230000D03*
X87630000Y-77470000D03*
X87630000Y-62230000D03*
X85090000Y-77470000D03*
X85090000Y-62230000D03*
X82550000Y-77470000D03*
X82550000Y-62230000D03*
D13*
X80010000Y-77470000D03*
D12*
X80010000Y-62230000D03*
X124460000Y-66040000D03*
X124460000Y-68580000D03*
X124460000Y-71120000D03*
X124460000Y-73660000D03*
X153670000Y-55880000D03*
D15*
X191770000Y-71120000D03*
X191770000Y-68580000D03*
X191770000Y-66040000D03*
X191770000Y-63500000D03*
D12*
X191770000Y-60960000D03*
D19*
X138910100Y-63333300D03*
X134752300Y-63664500D03*
X137670400Y-64085600D03*
X126827400Y-66399800D03*
X153167000Y-69177300D03*
D20*
X190594700Y-71120000D02*
X190144400Y-70669700D01*
X190144400Y-70669700D02*
X147294100Y-70669700D01*
X147294100Y-70669700D02*
X139232400Y-62608000D01*
X139232400Y-62608000D02*
X134783100Y-62608000D01*
X134783100Y-62608000D02*
X134027000Y-63364100D01*
X134027000Y-63364100D02*
X134027000Y-64093000D01*
X134027000Y-64093000D02*
X124460000Y-73660000D01*
X236180000Y-69850000D02*
X236180000Y-79100000D01*
X236180000Y-79100000D02*
X235270000Y-80010000D01*
X191770000Y-71120000D02*
X190594700Y-71120000D01*
X125730000Y-77470000D02*
X125730000Y-74930000D01*
X125730000Y-74930000D02*
X124460000Y-73660000D01*
X216111500Y-60230000D02*
X216111500Y-61361000D01*
X216111500Y-61361000D02*
X206352500Y-71120000D01*
X206352500Y-71120000D02*
X191770000Y-71120000D01*
X214940000Y-57520000D02*
X216111500Y-58691500D01*
X216111500Y-58691500D02*
X216111500Y-60230000D01*
X219710000Y-60230000D02*
X216111500Y-60230000D01*
X219710000Y-60230000D02*
X222420000Y-57520000D01*
X222420000Y-57520000D02*
X226980000Y-57520000D01*
X142895000Y-61395000D02*
X141716600Y-60216600D01*
X141716600Y-60216600D02*
X136537600Y-60216600D01*
X136537600Y-60216600D02*
X133576700Y-63177500D01*
X133576700Y-63177500D02*
X133576700Y-63667300D01*
X133576700Y-63667300D02*
X124854000Y-72390000D01*
X124854000Y-72390000D02*
X124050500Y-72390000D01*
X124050500Y-72390000D02*
X123190000Y-73250500D01*
X123190000Y-73250500D02*
X123190000Y-77470000D01*
X153670000Y-55880000D02*
X153670000Y-60960000D01*
X137815000Y-61395000D02*
X138990300Y-61395000D01*
X191770000Y-68580000D02*
X190594700Y-68580000D01*
X190594700Y-68580000D02*
X189269800Y-69904900D01*
X189269800Y-69904900D02*
X147183000Y-69904900D01*
X147183000Y-69904900D02*
X138990300Y-61712200D01*
X138990300Y-61712200D02*
X138990300Y-61395000D01*
X95250000Y-77470000D02*
X96520000Y-76200000D01*
X96520000Y-76200000D02*
X98186400Y-76200000D01*
X98186400Y-76200000D02*
X111760000Y-62626400D01*
X111760000Y-62626400D02*
X111760000Y-61791400D01*
X111760000Y-61791400D02*
X112959100Y-60592300D01*
X112959100Y-60592300D02*
X114667700Y-60592300D01*
X114667700Y-60592300D02*
X124460000Y-50800000D01*
X92710000Y-77470000D02*
X106378800Y-63801200D01*
X106378800Y-63801200D02*
X108042200Y-63801200D01*
X108042200Y-63801200D02*
X109220000Y-62623400D01*
X109220000Y-62623400D02*
X109220000Y-61837500D01*
X109220000Y-61837500D02*
X115687900Y-55369600D01*
X115687900Y-55369600D02*
X117350400Y-55369600D01*
X117350400Y-55369600D02*
X121920000Y-50800000D01*
X90170000Y-77470000D02*
X104184300Y-63455700D01*
X104184300Y-63455700D02*
X105846600Y-63455700D01*
X105846600Y-63455700D02*
X106680000Y-62622300D01*
X106680000Y-62622300D02*
X106680000Y-61837200D01*
X106680000Y-61837200D02*
X115662500Y-52854700D01*
X115662500Y-52854700D02*
X117325300Y-52854700D01*
X117325300Y-52854700D02*
X119380000Y-50800000D01*
X116840000Y-50800000D02*
X112382300Y-55257700D01*
X112382300Y-55257700D02*
X110688200Y-55257700D01*
X110688200Y-55257700D02*
X104045400Y-61900500D01*
X104045400Y-61900500D02*
X104045400Y-62764400D01*
X104045400Y-62764400D02*
X102600200Y-64209600D01*
X102600200Y-64209600D02*
X100890400Y-64209600D01*
X100890400Y-64209600D02*
X87630000Y-77470000D01*
X114300000Y-50800000D02*
X108340900Y-56759100D01*
X108340900Y-56759100D02*
X106647000Y-56759100D01*
X106647000Y-56759100D02*
X101600000Y-61806100D01*
X101600000Y-61806100D02*
X101600000Y-62633200D01*
X101600000Y-62633200D02*
X100023600Y-64209600D01*
X100023600Y-64209600D02*
X98350400Y-64209600D01*
X98350400Y-64209600D02*
X85090000Y-77470000D01*
X82550000Y-77470000D02*
X96355400Y-63664600D01*
X96355400Y-63664600D02*
X98076800Y-63664600D01*
X98076800Y-63664600D02*
X99060000Y-62681400D01*
X99060000Y-62681400D02*
X99060000Y-61766300D01*
X99060000Y-61766300D02*
X107967600Y-52858700D01*
X107967600Y-52858700D02*
X109701300Y-52858700D01*
X109701300Y-52858700D02*
X111760000Y-50800000D01*
X80010000Y-77470000D02*
X81185300Y-77470000D01*
X81185300Y-77470000D02*
X81185300Y-77102600D01*
X81185300Y-77102600D02*
X81993200Y-76294700D01*
X81993200Y-76294700D02*
X82867400Y-76294700D01*
X82867400Y-76294700D02*
X96520000Y-62642100D01*
X96520000Y-62642100D02*
X96520000Y-61784500D01*
X96520000Y-61784500D02*
X107504500Y-50800000D01*
X107504500Y-50800000D02*
X109220000Y-50800000D01*
X115570000Y-62230000D02*
X114369400Y-63430600D01*
X114369400Y-63430600D02*
X114369400Y-77967400D01*
X114369400Y-77967400D02*
X116432700Y-80030700D01*
X116432700Y-80030700D02*
X141083700Y-80030700D01*
X141083700Y-80030700D02*
X144205400Y-76909000D01*
X144205400Y-76909000D02*
X174699000Y-76909000D01*
X174699000Y-76909000D02*
X176530000Y-78740000D01*
X113030000Y-62230000D02*
X104229900Y-71030100D01*
X104229900Y-71030100D02*
X104229900Y-77979100D01*
X104229900Y-77979100D02*
X108553400Y-82302600D01*
X108553400Y-82302600D02*
X170427400Y-82302600D01*
X170427400Y-82302600D02*
X173990000Y-78740000D01*
X118110000Y-62230000D02*
X116922700Y-61042700D01*
X116922700Y-61042700D02*
X115059600Y-61042700D01*
X115059600Y-61042700D02*
X114210000Y-61892300D01*
X114210000Y-61892300D02*
X114210000Y-62759800D01*
X114210000Y-62759800D02*
X111814700Y-65155100D01*
X111814700Y-65155100D02*
X111814700Y-77925700D01*
X111814700Y-77925700D02*
X114370100Y-80481100D01*
X114370100Y-80481100D02*
X154571900Y-80481100D01*
X154571900Y-80481100D02*
X157693600Y-77359400D01*
X157693600Y-77359400D02*
X170069400Y-77359400D01*
X170069400Y-77359400D02*
X171450000Y-78740000D01*
X105410000Y-77470000D02*
X109779600Y-81839600D01*
X109779600Y-81839600D02*
X165810400Y-81839600D01*
X165810400Y-81839600D02*
X168910000Y-78740000D01*
X107950000Y-77470000D02*
X111869200Y-81389200D01*
X111869200Y-81389200D02*
X161180800Y-81389200D01*
X161180800Y-81389200D02*
X163830000Y-78740000D01*
X110490000Y-77470000D02*
X113958800Y-80938800D01*
X113958800Y-80938800D02*
X159091200Y-80938800D01*
X159091200Y-80938800D02*
X161290000Y-78740000D01*
X191770000Y-60960000D02*
X185501800Y-54691800D01*
X185501800Y-54691800D02*
X139589600Y-54691800D01*
X139589600Y-54691800D02*
X126878200Y-67403200D01*
X126878200Y-67403200D02*
X123974600Y-67403200D01*
X123974600Y-67403200D02*
X116894700Y-74483100D01*
X116894700Y-74483100D02*
X116894700Y-77948100D01*
X116894700Y-77948100D02*
X117592000Y-78645400D01*
X117592000Y-78645400D02*
X119474600Y-78645400D01*
X119474600Y-78645400D02*
X120650000Y-77470000D01*
X136774700Y-76040000D02*
X133699000Y-79115700D01*
X133699000Y-79115700D02*
X122295700Y-79115700D01*
X122295700Y-79115700D02*
X120650000Y-77470000D01*
X137950000Y-76040000D02*
X136774700Y-76040000D01*
X137950000Y-72640000D02*
X136774700Y-72640000D01*
X136774700Y-72640000D02*
X130749400Y-78665300D01*
X130749400Y-78665300D02*
X122718900Y-78665300D01*
X122718900Y-78665300D02*
X121920000Y-77866400D01*
X121920000Y-77866400D02*
X121920000Y-77049300D01*
X121920000Y-77049300D02*
X121139800Y-76269100D01*
X121139800Y-76269100D02*
X119310900Y-76269100D01*
X119310900Y-76269100D02*
X118110000Y-77470000D01*
X137950000Y-70315300D02*
X139125400Y-71490700D01*
X139125400Y-71490700D02*
X139125400Y-77037000D01*
X139125400Y-77037000D02*
X136583200Y-79579200D01*
X136583200Y-79579200D02*
X117679200Y-79579200D01*
X117679200Y-79579200D02*
X115570000Y-77470000D01*
X137950000Y-69140000D02*
X137950000Y-70315300D01*
X138910100Y-63333300D02*
X139320700Y-63333300D01*
X139320700Y-63333300D02*
X147107400Y-71120000D01*
X147107400Y-71120000D02*
X179070000Y-71120000D01*
X179070000Y-71120000D02*
X186690000Y-78740000D01*
X137810000Y-58640000D02*
X136634700Y-58640000D01*
X124460000Y-68580000D02*
X126694700Y-68580000D01*
X126694700Y-68580000D02*
X136634700Y-58640000D01*
X143030000Y-76040000D02*
X143030000Y-74864700D01*
X134752300Y-63664500D02*
X139125400Y-68037600D01*
X139125400Y-68037600D02*
X139125400Y-69483300D01*
X139125400Y-69483300D02*
X141854700Y-72212600D01*
X141854700Y-72212600D02*
X141854700Y-73689400D01*
X141854700Y-73689400D02*
X143030000Y-74864700D01*
X144205300Y-69140000D02*
X147261300Y-72196000D01*
X147261300Y-72196000D02*
X175066000Y-72196000D01*
X175066000Y-72196000D02*
X181610000Y-78740000D01*
X143030000Y-69140000D02*
X141854700Y-69140000D01*
X141854700Y-69140000D02*
X141854700Y-68269900D01*
X141854700Y-68269900D02*
X137670400Y-64085600D01*
X143030000Y-69140000D02*
X144205300Y-69140000D01*
X144205300Y-72640000D02*
X144211600Y-72646300D01*
X144211600Y-72646300D02*
X172976300Y-72646300D01*
X172976300Y-72646300D02*
X179070000Y-78740000D01*
X126827400Y-66399800D02*
X124840800Y-64413200D01*
X124840800Y-64413200D02*
X122833200Y-64413200D01*
X122833200Y-64413200D02*
X120650000Y-62230000D01*
X143030000Y-72640000D02*
X144205300Y-72640000D01*
X153122600Y-62570300D02*
X153122600Y-69132900D01*
X153122600Y-69132900D02*
X153167000Y-69177300D01*
X153122600Y-62570300D02*
X142338200Y-62570300D01*
X142338200Y-62570300D02*
X141530300Y-61762400D01*
X141530300Y-61762400D02*
X141530300Y-61395000D01*
X208280000Y-62230000D02*
X153462900Y-62230000D01*
X153462900Y-62230000D02*
X153122600Y-62570300D01*
X140355000Y-61395000D02*
X141530300Y-61395000D01*
M02*
