%TF.GenerationSoftware,KiCad,Pcbnew,(5.1.10)-1*%
%TF.CreationDate,2021-08-07T13:37:59-04:00*%
%TF.ProjectId,unidapt,6d6f6465-6c6a-42d3-9230-32316d2d6164,rev?*%
%TF.SameCoordinates,Original*%
%TF.FileFunction,Profile,NP*%
%FSLAX46Y46*%
G04 Gerber Fmt 4.6, Leading zero omitted, Abs format (unit mm)*
G04 Created by KiCad (PCBNEW (5.1.10)-1) date 2021-08-07 13:37:59*
%MOMM*%
%LPD*%
G01*
G04 APERTURE LIST*
%TA.AperFunction,Profile*%
%ADD10C,0.100000*%
%TD*%
G04 APERTURE END LIST*
D10*
X101750000Y-77000000D02*
X101750000Y-39370000D01*
X172000000Y-77000000D02*
X101750000Y-77000000D01*
X172000000Y-39370000D02*
X172000000Y-77000000D01*
X101750000Y-39370000D02*
X172000000Y-39370000D01*
M02*
