%TF.GenerationSoftware,KiCad,Pcbnew,(5.1.10)-1*%
%TF.CreationDate,2021-08-07T13:37:59-04:00*%
%TF.ProjectId,unidapt,6d6f6465-6c6a-42d3-9230-32316d2d6164,rev?*%
%TF.SameCoordinates,Original*%
%TF.FileFunction,Soldermask,Bot*%
%TF.FilePolarity,Negative*%
%FSLAX46Y46*%
G04 Gerber Fmt 4.6, Leading zero omitted, Abs format (unit mm)*
G04 Created by KiCad (PCBNEW (5.1.10)-1) date 2021-08-07 13:37:59*
%MOMM*%
%LPD*%
G01*
G04 APERTURE LIST*
%ADD10O,1.700000X1.700000*%
%ADD11R,1.700000X1.700000*%
%ADD12C,1.500000*%
%ADD13C,5.000000*%
%ADD14C,1.800000*%
%ADD15R,1.800000X1.800000*%
G04 APERTURE END LIST*
D10*
%TO.C,J3*%
X140810000Y-52000000D03*
X143350000Y-52000000D03*
X145890000Y-52000000D03*
X148430000Y-52000000D03*
X150970000Y-52000000D03*
X153510000Y-52000000D03*
X156050000Y-52000000D03*
X158590000Y-52000000D03*
X161130000Y-52000000D03*
X163670000Y-52000000D03*
X166210000Y-52000000D03*
D11*
X168750000Y-52000000D03*
%TD*%
D10*
%TO.C,J2*%
X130650000Y-47750000D03*
X133190000Y-47750000D03*
X135730000Y-47750000D03*
X138270000Y-47750000D03*
X140810000Y-47750000D03*
X143350000Y-47750000D03*
X145890000Y-47750000D03*
X148430000Y-47750000D03*
X150970000Y-47750000D03*
X153510000Y-47750000D03*
X156050000Y-47750000D03*
X158590000Y-47750000D03*
X161130000Y-47750000D03*
X163670000Y-47750000D03*
X166210000Y-47750000D03*
D11*
X168750000Y-47750000D03*
%TD*%
D12*
%TO.C,TP2*%
X105750000Y-62250000D03*
%TD*%
%TO.C,TP1*%
X106000000Y-43250000D03*
%TD*%
D10*
%TO.C,J4*%
X161130000Y-42250000D03*
X163670000Y-42250000D03*
X166210000Y-42250000D03*
D11*
X168750000Y-42250000D03*
%TD*%
D13*
%TO.C,J1*%
X167200000Y-73500000D03*
X106450000Y-73500000D03*
%TD*%
D14*
%TO.C,D3*%
X155540000Y-43250000D03*
D15*
X153000000Y-43250000D03*
%TD*%
D14*
%TO.C,D2*%
X137790000Y-43250000D03*
D15*
X135250000Y-43250000D03*
%TD*%
D14*
%TO.C,D1*%
X119540000Y-43250000D03*
D15*
X117000000Y-43250000D03*
%TD*%
M02*
