(module triomate-cols20 (layer F.Cu) (tedit 61022F47)
  (fp_text reference REF** (at 0 3.5) (layer F.SilkS)
    (effects (font (size 1 1) (thickness 0.15)))
  )
  (fp_text value triomate-cols20 (at 0 -2.5) (layer F.Fab)
    (effects (font (size 1 1) (thickness 0.15)))
  )
  (fp_line (start -24.13 1.5) (end -24.13 2.5) (layer F.SilkS) (width 0.12))
  (fp_line (start -25.63 1.5) (end -24.13 1.5) (layer F.SilkS) (width 0.12))
  (fp_line (start 24.185336 1.5) (end 24.185336 2.5) (layer F.SilkS) (width 0.12))
  (fp_line (start 25.685336 1.5) (end 24.185336 1.5) (layer F.SilkS) (width 0.12))
  (fp_line (start -25.38 2.25) (end -25.38 -1.25) (layer F.CrtYd) (width 0.05))
  (fp_line (start 25.4 2.25) (end -25.38 2.25) (layer F.CrtYd) (width 0.05))
  (fp_line (start 25.4 -1.25) (end 25.4 2.25) (layer F.CrtYd) (width 0.05))
  (fp_line (start -25.38 -1.25) (end 25.4 -1.25) (layer F.CrtYd) (width 0.05))
  (fp_line (start -25.63 1.5) (end -25.63 -1.5) (layer F.SilkS) (width 0.12))
  (fp_line (start 24.13 2.54) (end -24.13 2.5) (layer F.SilkS) (width 0.12))
  (fp_line (start 25.685336 -1.5) (end 25.685336 1.5) (layer F.SilkS) (width 0.12))
  (fp_line (start -25.63 -1.5) (end 25.685336 -1.5) (layer F.SilkS) (width 0.12))
  (fp_line (start -15.24 -1.25) (end -15.24 2.25) (layer F.CrtYd) (width 0.05))
  (fp_line (start -15.2 -1.9) (end -15.2 3.1) (layer F.SilkS) (width 0.12))
  (pad 1 thru_hole circle (at -24.13 0) (size 2 2) (drill 1) (layers *.Cu *.Mask))
  (pad 2 thru_hole circle (at -21.59 0) (size 2 2) (drill 1) (layers *.Cu *.Mask))
  (pad 3 thru_hole circle (at -19.05 0) (size 2 2) (drill 1) (layers *.Cu *.Mask))
  (pad 4 thru_hole circle (at -16.51 0) (size 2 2) (drill 1) (layers *.Cu *.Mask))
  (pad 5 thru_hole circle (at -13.97 0) (size 2 2) (drill 1) (layers *.Cu *.Mask))
  (pad 6 thru_hole circle (at -11.43 0) (size 2 2) (drill 1) (layers *.Cu *.Mask))
  (pad 7 thru_hole circle (at -8.89 0) (size 2 2) (drill 1) (layers *.Cu *.Mask))
  (pad 8 thru_hole circle (at -6.35 0) (size 2 2) (drill 1) (layers *.Cu *.Mask))
  (pad 9 thru_hole circle (at -3.81 0) (size 2 2) (drill 1) (layers *.Cu *.Mask))
  (pad 10 thru_hole circle (at -1.27 0) (size 2 2) (drill 1) (layers *.Cu *.Mask))
  (pad 11 thru_hole circle (at 1.27 0) (size 2 2) (drill 1) (layers *.Cu *.Mask))
  (pad 12 thru_hole circle (at 3.81 0) (size 2 2) (drill 1) (layers *.Cu *.Mask))
  (pad 13 thru_hole circle (at 6.35 0) (size 2 2) (drill 1) (layers *.Cu *.Mask))
  (pad 14 thru_hole circle (at 8.89 0) (size 2 2) (drill 1) (layers *.Cu *.Mask))
  (pad 15 thru_hole circle (at 11.43 0) (size 2 2) (drill 1) (layers *.Cu *.Mask))
  (pad 16 thru_hole circle (at 13.97 0) (size 2 2) (drill 1) (layers *.Cu *.Mask))
  (pad 17 thru_hole circle (at 16.51 0) (size 2 2) (drill 1) (layers *.Cu *.Mask))
  (pad 18 thru_hole circle (at 19.05 0) (size 2 2) (drill 1) (layers *.Cu *.Mask))
  (pad 19 thru_hole circle (at 21.59 0) (size 2 2) (drill 1) (layers *.Cu *.Mask))
  (pad 20 thru_hole circle (at 24.13 0) (size 2 2) (drill 1) (layers *.Cu *.Mask))
)
