<?xml version="1.0" encoding="UTF-8" standalone="no"?>
<svg
   xmlns:dc="http://purl.org/dc/elements/1.1/"
   xmlns:cc="http://creativecommons.org/ns#"
   xmlns:rdf="http://www.w3.org/1999/02/22-rdf-syntax-ns#"
   xmlns:svg="http://www.w3.org/2000/svg"
   xmlns="http://www.w3.org/2000/svg"
   xmlns:xlink="http://www.w3.org/1999/xlink"
   xmlns:sodipodi="http://sodipodi.sourceforge.net/DTD/sodipodi-0.dtd"
   xmlns:inkscape="http://www.inkscape.org/namespaces/inkscape"
   width="100%"
   height="100%"
   viewBox="0 0 600 600"
   version="1.1"
   id="svg18"
   sodipodi:docname="m-star.svg"
   inkscape:version="1.0.1 (3bc2e813f5, 2020-09-07)"
   inkscape:export-filename="/home/esr/WWW/m-star/web/m-star.png"
   inkscape:export-xdpi="96"
   inkscape:export-ydpi="96">
  <metadata
     id="metadata22">
    <rdf:RDF>
      <cc:Work
         rdf:about="">
        <dc:format>image/svg+xml</dc:format>
        <dc:type
           rdf:resource="http://purl.org/dc/dcmitype/StillImage" />
        <dc:title />
      </cc:Work>
    </rdf:RDF>
  </metadata>
  <sodipodi:namedview
     pagecolor="#ffffff"
     bordercolor="#666666"
     borderopacity="1"
     objecttolerance="10"
     gridtolerance="10"
     guidetolerance="10"
     inkscape:pageopacity="0"
     inkscape:pageshadow="2"
     inkscape:window-width="1276"
     inkscape:window-height="1060"
     id="namedview20"
     showgrid="false"
     inkscape:zoom="1.68"
     inkscape:cx="240.17857"
     inkscape:cy="266.97421"
     inkscape:window-x="640"
     inkscape:window-y="188"
     inkscape:window-maximized="0"
     inkscape:current-layer="svg18"
     inkscape:document-rotation="0" />
  <desc
     id="desc2">
    Polygon Star code generated by Polygon Star Maker
    http://steamcoded.org/StarMaker.svg

    Polygon Star Maker written by Jay Nick
    Version 1.0 - March, 2017
    Recolored and overlaid with text M by ESR, August 2021
  </desc>
  <defs
     id="defs10">
    <symbol
       id="star"
       viewBox="0 0 600 600"
       overflow="visible">
      <path
         d="M300,0L388.2,178.6L585.3,207.3L442.7,346.4L476.3,542.7L300,450L123.7,542.7L157.3,346.4L14.7,207.3L211.8,178.6L300,0z"
         id="path4" />
    </symbol>
    <symbol
       id="starshadow"
       viewBox="0 0 600 600"
       overflow="visible">
      <path
         d="M300,300L300,0L388.2,178.6L300,300zL585.3,207.3L442.7,346.4L300,300zL476.3,542.7L300,450L300,300zL123.7,542.7L157.3,346.4L300,300zL14.7,207.3L211.8,178.6L300,300z"
         id="path7" />
    </symbol>
  </defs>
  <g
     transform="translate(0,28)"
     id="g16">
    <use
       width="600"
       height="600"
       xlink:href="#star"
       style="fill:#33b1ff;stroke:none;"
       id="use12" />
    <use
       width="600"
       height="600"
       xlink:href="#starshadow"
       style="fill:black;fill-opacity:0.2;stroke:none;"
       id="use14" />
  </g>
  <text
     xml:space="preserve"
     style="font-size:40px;line-height:125%;font-family:Sans;letter-spacing:0px;word-spacing:0px;fill:none;stroke:#000000;stroke-width:1px;stroke-linecap:butt;stroke-linejoin:miter;stroke-opacity:1"
     x="297.35638"
     y="246.75777"
     id="text26"><tspan
       sodipodi:role="line"
       id="tspan24"
       x="297.35638"
       y="246.75777" /></text>
  <text
     xml:space="preserve"
     style="font-style:normal;font-variant:normal;font-weight:normal;font-stretch:normal;font-size:318.389px;line-height:125%;font-family:'Liberation Sans';-inkscape-font-specification:'Liberation Sans';letter-spacing:0px;word-spacing:0px;fill:#000000;stroke:#000000;stroke-width:1.65827px;stroke-linecap:butt;stroke-linejoin:miter;stroke-opacity:1;"
     x="155.17873"
     y="458.5036"
     id="text20"
     transform="scale(1.0460939,0.9559371)"><tspan
       sodipodi:role="line"
       id="tspan18"
       x="155.17873"
       y="458.5036"
       style="stroke-width:1.65827px;fill:#000000;">M</tspan></text>
</svg>
